[2020-10-17 08:56:53,615] {scheduler_job.py:154} INFO - Started process (PID=921) to work on /home/suraj/airflow/dags/dag1.py
[2020-10-17 08:56:53,621] {scheduler_job.py:1589} INFO - Processing file /home/suraj/airflow/dags/dag1.py for tasks to queue
[2020-10-17 08:56:53,622] {logging_mixin.py:112} INFO - [2020-10-17 08:56:53,622] {dagbag.py:417} INFO - Filling up the DagBag from /home/suraj/airflow/dags/dag1.py
[2020-10-17 08:56:53,625] {scheduler_job.py:1603} WARNING - No viable dags retrieved from /home/suraj/airflow/dags/dag1.py
[2020-10-17 08:56:53,639] {scheduler_job.py:162} INFO - Processing /home/suraj/airflow/dags/dag1.py took 0.024 seconds
[2020-10-17 08:57:47,647] {scheduler_job.py:154} INFO - Started process (PID=982) to work on /home/suraj/airflow/dags/dag1.py
[2020-10-17 08:57:47,653] {scheduler_job.py:1589} INFO - Processing file /home/suraj/airflow/dags/dag1.py for tasks to queue
[2020-10-17 08:57:47,653] {logging_mixin.py:112} INFO - [2020-10-17 08:57:47,653] {dagbag.py:417} INFO - Filling up the DagBag from /home/suraj/airflow/dags/dag1.py
[2020-10-17 08:57:47,656] {scheduler_job.py:1603} WARNING - No viable dags retrieved from /home/suraj/airflow/dags/dag1.py
[2020-10-17 08:57:47,671] {scheduler_job.py:162} INFO - Processing /home/suraj/airflow/dags/dag1.py took 0.024 seconds
[2020-10-17 08:58:41,655] {scheduler_job.py:154} INFO - Started process (PID=1240) to work on /home/suraj/airflow/dags/dag1.py
[2020-10-17 08:58:41,660] {scheduler_job.py:1589} INFO - Processing file /home/suraj/airflow/dags/dag1.py for tasks to queue
[2020-10-17 08:58:41,660] {logging_mixin.py:112} INFO - [2020-10-17 08:58:41,660] {dagbag.py:417} INFO - Filling up the DagBag from /home/suraj/airflow/dags/dag1.py
[2020-10-17 08:58:41,663] {scheduler_job.py:1603} WARNING - No viable dags retrieved from /home/suraj/airflow/dags/dag1.py
[2020-10-17 08:58:41,674] {scheduler_job.py:162} INFO - Processing /home/suraj/airflow/dags/dag1.py took 0.019 seconds
[2020-10-17 08:59:35,744] {scheduler_job.py:154} INFO - Started process (PID=1303) to work on /home/suraj/airflow/dags/dag1.py
[2020-10-17 08:59:35,753] {scheduler_job.py:1589} INFO - Processing file /home/suraj/airflow/dags/dag1.py for tasks to queue
[2020-10-17 08:59:35,754] {logging_mixin.py:112} INFO - [2020-10-17 08:59:35,753] {dagbag.py:417} INFO - Filling up the DagBag from /home/suraj/airflow/dags/dag1.py
[2020-10-17 08:59:35,758] {scheduler_job.py:1603} WARNING - No viable dags retrieved from /home/suraj/airflow/dags/dag1.py
[2020-10-17 08:59:35,774] {scheduler_job.py:162} INFO - Processing /home/suraj/airflow/dags/dag1.py took 0.031 seconds
[2020-10-17 09:00:29,789] {scheduler_job.py:154} INFO - Started process (PID=1409) to work on /home/suraj/airflow/dags/dag1.py
[2020-10-17 09:00:29,796] {scheduler_job.py:1589} INFO - Processing file /home/suraj/airflow/dags/dag1.py for tasks to queue
[2020-10-17 09:00:29,797] {logging_mixin.py:112} INFO - [2020-10-17 09:00:29,797] {dagbag.py:417} INFO - Filling up the DagBag from /home/suraj/airflow/dags/dag1.py
[2020-10-17 09:00:29,801] {scheduler_job.py:1603} WARNING - No viable dags retrieved from /home/suraj/airflow/dags/dag1.py
[2020-10-17 09:00:29,815] {scheduler_job.py:162} INFO - Processing /home/suraj/airflow/dags/dag1.py took 0.026 seconds
[2020-10-17 09:01:23,887] {scheduler_job.py:154} INFO - Started process (PID=1552) to work on /home/suraj/airflow/dags/dag1.py
[2020-10-17 09:01:23,894] {scheduler_job.py:1589} INFO - Processing file /home/suraj/airflow/dags/dag1.py for tasks to queue
[2020-10-17 09:01:23,895] {logging_mixin.py:112} INFO - [2020-10-17 09:01:23,894] {dagbag.py:417} INFO - Filling up the DagBag from /home/suraj/airflow/dags/dag1.py
[2020-10-17 09:01:23,898] {scheduler_job.py:1603} WARNING - No viable dags retrieved from /home/suraj/airflow/dags/dag1.py
[2020-10-17 09:01:23,911] {scheduler_job.py:162} INFO - Processing /home/suraj/airflow/dags/dag1.py took 0.024 seconds
[2020-10-17 09:02:17,886] {scheduler_job.py:154} INFO - Started process (PID=1591) to work on /home/suraj/airflow/dags/dag1.py
[2020-10-17 09:02:17,893] {scheduler_job.py:1589} INFO - Processing file /home/suraj/airflow/dags/dag1.py for tasks to queue
[2020-10-17 09:02:17,894] {logging_mixin.py:112} INFO - [2020-10-17 09:02:17,894] {dagbag.py:417} INFO - Filling up the DagBag from /home/suraj/airflow/dags/dag1.py
[2020-10-17 09:02:17,898] {scheduler_job.py:1603} WARNING - No viable dags retrieved from /home/suraj/airflow/dags/dag1.py
[2020-10-17 09:02:17,911] {scheduler_job.py:162} INFO - Processing /home/suraj/airflow/dags/dag1.py took 0.025 seconds
[2020-10-17 09:03:11,942] {scheduler_job.py:154} INFO - Started process (PID=1634) to work on /home/suraj/airflow/dags/dag1.py
[2020-10-17 09:03:11,950] {scheduler_job.py:1589} INFO - Processing file /home/suraj/airflow/dags/dag1.py for tasks to queue
[2020-10-17 09:03:11,950] {logging_mixin.py:112} INFO - [2020-10-17 09:03:11,950] {dagbag.py:417} INFO - Filling up the DagBag from /home/suraj/airflow/dags/dag1.py
[2020-10-17 09:03:11,954] {scheduler_job.py:1603} WARNING - No viable dags retrieved from /home/suraj/airflow/dags/dag1.py
[2020-10-17 09:03:11,968] {scheduler_job.py:162} INFO - Processing /home/suraj/airflow/dags/dag1.py took 0.026 seconds
[2020-10-17 09:04:06,042] {scheduler_job.py:154} INFO - Started process (PID=1682) to work on /home/suraj/airflow/dags/dag1.py
[2020-10-17 09:04:06,053] {scheduler_job.py:1589} INFO - Processing file /home/suraj/airflow/dags/dag1.py for tasks to queue
[2020-10-17 09:04:06,054] {logging_mixin.py:112} INFO - [2020-10-17 09:04:06,054] {dagbag.py:417} INFO - Filling up the DagBag from /home/suraj/airflow/dags/dag1.py
[2020-10-17 09:04:06,059] {scheduler_job.py:1603} WARNING - No viable dags retrieved from /home/suraj/airflow/dags/dag1.py
[2020-10-17 09:04:06,078] {scheduler_job.py:162} INFO - Processing /home/suraj/airflow/dags/dag1.py took 0.036 seconds
[2020-10-17 09:05:00,087] {scheduler_job.py:154} INFO - Started process (PID=1726) to work on /home/suraj/airflow/dags/dag1.py
[2020-10-17 09:05:00,095] {scheduler_job.py:1589} INFO - Processing file /home/suraj/airflow/dags/dag1.py for tasks to queue
[2020-10-17 09:05:00,095] {logging_mixin.py:112} INFO - [2020-10-17 09:05:00,095] {dagbag.py:417} INFO - Filling up the DagBag from /home/suraj/airflow/dags/dag1.py
[2020-10-17 09:05:00,098] {scheduler_job.py:1603} WARNING - No viable dags retrieved from /home/suraj/airflow/dags/dag1.py
[2020-10-17 09:05:00,112] {scheduler_job.py:162} INFO - Processing /home/suraj/airflow/dags/dag1.py took 0.024 seconds
[2020-10-17 09:05:54,103] {scheduler_job.py:154} INFO - Started process (PID=1762) to work on /home/suraj/airflow/dags/dag1.py
[2020-10-17 09:05:54,109] {scheduler_job.py:1589} INFO - Processing file /home/suraj/airflow/dags/dag1.py for tasks to queue
[2020-10-17 09:05:54,109] {logging_mixin.py:112} INFO - [2020-10-17 09:05:54,109] {dagbag.py:417} INFO - Filling up the DagBag from /home/suraj/airflow/dags/dag1.py
[2020-10-17 09:05:54,113] {scheduler_job.py:1603} WARNING - No viable dags retrieved from /home/suraj/airflow/dags/dag1.py
[2020-10-17 09:05:54,129] {scheduler_job.py:162} INFO - Processing /home/suraj/airflow/dags/dag1.py took 0.027 seconds
[2020-10-17 09:06:48,231] {scheduler_job.py:154} INFO - Started process (PID=1922) to work on /home/suraj/airflow/dags/dag1.py
[2020-10-17 09:06:48,238] {scheduler_job.py:1589} INFO - Processing file /home/suraj/airflow/dags/dag1.py for tasks to queue
[2020-10-17 09:06:48,238] {logging_mixin.py:112} INFO - [2020-10-17 09:06:48,238] {dagbag.py:417} INFO - Filling up the DagBag from /home/suraj/airflow/dags/dag1.py
[2020-10-17 09:06:48,241] {scheduler_job.py:1603} WARNING - No viable dags retrieved from /home/suraj/airflow/dags/dag1.py
[2020-10-17 09:06:48,253] {scheduler_job.py:162} INFO - Processing /home/suraj/airflow/dags/dag1.py took 0.023 seconds
[2020-10-17 09:07:42,321] {scheduler_job.py:154} INFO - Started process (PID=1966) to work on /home/suraj/airflow/dags/dag1.py
[2020-10-17 09:07:42,328] {scheduler_job.py:1589} INFO - Processing file /home/suraj/airflow/dags/dag1.py for tasks to queue
[2020-10-17 09:07:42,329] {logging_mixin.py:112} INFO - [2020-10-17 09:07:42,329] {dagbag.py:417} INFO - Filling up the DagBag from /home/suraj/airflow/dags/dag1.py
[2020-10-17 09:07:42,332] {scheduler_job.py:1603} WARNING - No viable dags retrieved from /home/suraj/airflow/dags/dag1.py
[2020-10-17 09:07:42,345] {scheduler_job.py:162} INFO - Processing /home/suraj/airflow/dags/dag1.py took 0.024 seconds
[2020-10-17 09:08:36,330] {scheduler_job.py:154} INFO - Started process (PID=2009) to work on /home/suraj/airflow/dags/dag1.py
[2020-10-17 09:08:36,340] {scheduler_job.py:1589} INFO - Processing file /home/suraj/airflow/dags/dag1.py for tasks to queue
[2020-10-17 09:08:36,341] {logging_mixin.py:112} INFO - [2020-10-17 09:08:36,341] {dagbag.py:417} INFO - Filling up the DagBag from /home/suraj/airflow/dags/dag1.py
[2020-10-17 09:08:36,345] {scheduler_job.py:1603} WARNING - No viable dags retrieved from /home/suraj/airflow/dags/dag1.py
[2020-10-17 09:08:36,360] {scheduler_job.py:162} INFO - Processing /home/suraj/airflow/dags/dag1.py took 0.030 seconds
[2020-10-17 09:09:30,305] {scheduler_job.py:154} INFO - Started process (PID=2052) to work on /home/suraj/airflow/dags/dag1.py
[2020-10-17 09:09:30,314] {scheduler_job.py:1589} INFO - Processing file /home/suraj/airflow/dags/dag1.py for tasks to queue
[2020-10-17 09:09:30,315] {logging_mixin.py:112} INFO - [2020-10-17 09:09:30,315] {dagbag.py:417} INFO - Filling up the DagBag from /home/suraj/airflow/dags/dag1.py
[2020-10-17 09:09:30,318] {scheduler_job.py:1603} WARNING - No viable dags retrieved from /home/suraj/airflow/dags/dag1.py
[2020-10-17 09:09:30,333] {scheduler_job.py:162} INFO - Processing /home/suraj/airflow/dags/dag1.py took 0.029 seconds
[2020-10-17 09:10:24,364] {scheduler_job.py:154} INFO - Started process (PID=2087) to work on /home/suraj/airflow/dags/dag1.py
[2020-10-17 09:10:24,371] {scheduler_job.py:1589} INFO - Processing file /home/suraj/airflow/dags/dag1.py for tasks to queue
[2020-10-17 09:10:24,372] {logging_mixin.py:112} INFO - [2020-10-17 09:10:24,372] {dagbag.py:417} INFO - Filling up the DagBag from /home/suraj/airflow/dags/dag1.py
[2020-10-17 09:10:24,376] {scheduler_job.py:1603} WARNING - No viable dags retrieved from /home/suraj/airflow/dags/dag1.py
[2020-10-17 09:10:24,393] {scheduler_job.py:162} INFO - Processing /home/suraj/airflow/dags/dag1.py took 0.029 seconds
[2020-10-17 09:11:18,406] {scheduler_job.py:154} INFO - Started process (PID=2130) to work on /home/suraj/airflow/dags/dag1.py
[2020-10-17 09:11:18,412] {scheduler_job.py:1589} INFO - Processing file /home/suraj/airflow/dags/dag1.py for tasks to queue
[2020-10-17 09:11:18,413] {logging_mixin.py:112} INFO - [2020-10-17 09:11:18,413] {dagbag.py:417} INFO - Filling up the DagBag from /home/suraj/airflow/dags/dag1.py
[2020-10-17 09:11:18,417] {scheduler_job.py:1603} WARNING - No viable dags retrieved from /home/suraj/airflow/dags/dag1.py
[2020-10-17 09:11:18,431] {scheduler_job.py:162} INFO - Processing /home/suraj/airflow/dags/dag1.py took 0.025 seconds
[2020-10-17 09:12:12,418] {scheduler_job.py:154} INFO - Started process (PID=2173) to work on /home/suraj/airflow/dags/dag1.py
[2020-10-17 09:12:12,425] {scheduler_job.py:1589} INFO - Processing file /home/suraj/airflow/dags/dag1.py for tasks to queue
[2020-10-17 09:12:12,426] {logging_mixin.py:112} INFO - [2020-10-17 09:12:12,425] {dagbag.py:417} INFO - Filling up the DagBag from /home/suraj/airflow/dags/dag1.py
[2020-10-17 09:12:12,428] {scheduler_job.py:1603} WARNING - No viable dags retrieved from /home/suraj/airflow/dags/dag1.py
[2020-10-17 09:12:12,444] {scheduler_job.py:162} INFO - Processing /home/suraj/airflow/dags/dag1.py took 0.026 seconds
[2020-10-17 09:13:06,449] {scheduler_job.py:154} INFO - Started process (PID=2216) to work on /home/suraj/airflow/dags/dag1.py
[2020-10-17 09:13:06,458] {scheduler_job.py:1589} INFO - Processing file /home/suraj/airflow/dags/dag1.py for tasks to queue
[2020-10-17 09:13:06,458] {logging_mixin.py:112} INFO - [2020-10-17 09:13:06,458] {dagbag.py:417} INFO - Filling up the DagBag from /home/suraj/airflow/dags/dag1.py
[2020-10-17 09:13:06,461] {scheduler_job.py:1603} WARNING - No viable dags retrieved from /home/suraj/airflow/dags/dag1.py
[2020-10-17 09:13:06,479] {scheduler_job.py:162} INFO - Processing /home/suraj/airflow/dags/dag1.py took 0.030 seconds
[2020-10-17 09:14:00,496] {scheduler_job.py:154} INFO - Started process (PID=2251) to work on /home/suraj/airflow/dags/dag1.py
[2020-10-17 09:14:00,505] {scheduler_job.py:1589} INFO - Processing file /home/suraj/airflow/dags/dag1.py for tasks to queue
[2020-10-17 09:14:00,506] {logging_mixin.py:112} INFO - [2020-10-17 09:14:00,505] {dagbag.py:417} INFO - Filling up the DagBag from /home/suraj/airflow/dags/dag1.py
[2020-10-17 09:14:00,512] {scheduler_job.py:1603} WARNING - No viable dags retrieved from /home/suraj/airflow/dags/dag1.py
[2020-10-17 09:14:00,535] {scheduler_job.py:162} INFO - Processing /home/suraj/airflow/dags/dag1.py took 0.040 seconds
[2020-10-17 09:14:54,519] {scheduler_job.py:154} INFO - Started process (PID=2294) to work on /home/suraj/airflow/dags/dag1.py
[2020-10-17 09:14:54,525] {scheduler_job.py:1589} INFO - Processing file /home/suraj/airflow/dags/dag1.py for tasks to queue
[2020-10-17 09:14:54,525] {logging_mixin.py:112} INFO - [2020-10-17 09:14:54,525] {dagbag.py:417} INFO - Filling up the DagBag from /home/suraj/airflow/dags/dag1.py
[2020-10-17 09:14:54,528] {scheduler_job.py:1603} WARNING - No viable dags retrieved from /home/suraj/airflow/dags/dag1.py
[2020-10-17 09:14:54,540] {scheduler_job.py:162} INFO - Processing /home/suraj/airflow/dags/dag1.py took 0.022 seconds
[2020-10-17 09:15:48,651] {scheduler_job.py:154} INFO - Started process (PID=2337) to work on /home/suraj/airflow/dags/dag1.py
[2020-10-17 09:15:48,658] {scheduler_job.py:1589} INFO - Processing file /home/suraj/airflow/dags/dag1.py for tasks to queue
[2020-10-17 09:15:48,658] {logging_mixin.py:112} INFO - [2020-10-17 09:15:48,658] {dagbag.py:417} INFO - Filling up the DagBag from /home/suraj/airflow/dags/dag1.py
[2020-10-17 09:15:48,661] {scheduler_job.py:1603} WARNING - No viable dags retrieved from /home/suraj/airflow/dags/dag1.py
[2020-10-17 09:15:48,677] {scheduler_job.py:162} INFO - Processing /home/suraj/airflow/dags/dag1.py took 0.026 seconds
[2020-10-17 09:16:42,662] {scheduler_job.py:154} INFO - Started process (PID=2380) to work on /home/suraj/airflow/dags/dag1.py
[2020-10-17 09:16:42,669] {scheduler_job.py:1589} INFO - Processing file /home/suraj/airflow/dags/dag1.py for tasks to queue
[2020-10-17 09:16:42,669] {logging_mixin.py:112} INFO - [2020-10-17 09:16:42,669] {dagbag.py:417} INFO - Filling up the DagBag from /home/suraj/airflow/dags/dag1.py
[2020-10-17 09:16:42,678] {scheduler_job.py:1603} WARNING - No viable dags retrieved from /home/suraj/airflow/dags/dag1.py
[2020-10-17 09:16:42,689] {scheduler_job.py:162} INFO - Processing /home/suraj/airflow/dags/dag1.py took 0.026 seconds
[2020-10-17 09:17:36,756] {scheduler_job.py:154} INFO - Started process (PID=2415) to work on /home/suraj/airflow/dags/dag1.py
[2020-10-17 09:17:36,805] {scheduler_job.py:1589} INFO - Processing file /home/suraj/airflow/dags/dag1.py for tasks to queue
[2020-10-17 09:17:36,807] {logging_mixin.py:112} INFO - [2020-10-17 09:17:36,807] {dagbag.py:417} INFO - Filling up the DagBag from /home/suraj/airflow/dags/dag1.py
[2020-10-17 09:17:36,816] {scheduler_job.py:1603} WARNING - No viable dags retrieved from /home/suraj/airflow/dags/dag1.py
[2020-10-17 09:17:36,844] {scheduler_job.py:162} INFO - Processing /home/suraj/airflow/dags/dag1.py took 0.088 seconds
[2020-10-17 09:18:30,719] {scheduler_job.py:154} INFO - Started process (PID=2458) to work on /home/suraj/airflow/dags/dag1.py
[2020-10-17 09:18:30,726] {scheduler_job.py:1589} INFO - Processing file /home/suraj/airflow/dags/dag1.py for tasks to queue
[2020-10-17 09:18:30,726] {logging_mixin.py:112} INFO - [2020-10-17 09:18:30,726] {dagbag.py:417} INFO - Filling up the DagBag from /home/suraj/airflow/dags/dag1.py
[2020-10-17 09:18:30,729] {scheduler_job.py:1603} WARNING - No viable dags retrieved from /home/suraj/airflow/dags/dag1.py
[2020-10-17 09:18:30,743] {scheduler_job.py:162} INFO - Processing /home/suraj/airflow/dags/dag1.py took 0.024 seconds
[2020-10-17 09:19:24,812] {scheduler_job.py:154} INFO - Started process (PID=2501) to work on /home/suraj/airflow/dags/dag1.py
[2020-10-17 09:19:24,817] {scheduler_job.py:1589} INFO - Processing file /home/suraj/airflow/dags/dag1.py for tasks to queue
[2020-10-17 09:19:24,818] {logging_mixin.py:112} INFO - [2020-10-17 09:19:24,818] {dagbag.py:417} INFO - Filling up the DagBag from /home/suraj/airflow/dags/dag1.py
[2020-10-17 09:19:24,820] {scheduler_job.py:1603} WARNING - No viable dags retrieved from /home/suraj/airflow/dags/dag1.py
[2020-10-17 09:19:24,834] {scheduler_job.py:162} INFO - Processing /home/suraj/airflow/dags/dag1.py took 0.022 seconds
[2020-10-17 09:20:18,935] {scheduler_job.py:154} INFO - Started process (PID=2544) to work on /home/suraj/airflow/dags/dag1.py
[2020-10-17 09:20:18,962] {scheduler_job.py:1589} INFO - Processing file /home/suraj/airflow/dags/dag1.py for tasks to queue
[2020-10-17 09:20:18,967] {logging_mixin.py:112} INFO - [2020-10-17 09:20:18,966] {dagbag.py:417} INFO - Filling up the DagBag from /home/suraj/airflow/dags/dag1.py
[2020-10-17 09:20:18,982] {scheduler_job.py:1603} WARNING - No viable dags retrieved from /home/suraj/airflow/dags/dag1.py
[2020-10-17 09:20:19,040] {scheduler_job.py:162} INFO - Processing /home/suraj/airflow/dags/dag1.py took 0.106 seconds
[2020-10-17 09:21:12,867] {scheduler_job.py:154} INFO - Started process (PID=2579) to work on /home/suraj/airflow/dags/dag1.py
[2020-10-17 09:21:12,874] {scheduler_job.py:1589} INFO - Processing file /home/suraj/airflow/dags/dag1.py for tasks to queue
[2020-10-17 09:21:12,875] {logging_mixin.py:112} INFO - [2020-10-17 09:21:12,875] {dagbag.py:417} INFO - Filling up the DagBag from /home/suraj/airflow/dags/dag1.py
[2020-10-17 09:21:12,878] {scheduler_job.py:1603} WARNING - No viable dags retrieved from /home/suraj/airflow/dags/dag1.py
[2020-10-17 09:21:12,891] {scheduler_job.py:162} INFO - Processing /home/suraj/airflow/dags/dag1.py took 0.025 seconds
[2020-10-17 09:22:06,993] {scheduler_job.py:154} INFO - Started process (PID=2622) to work on /home/suraj/airflow/dags/dag1.py
[2020-10-17 09:22:07,022] {scheduler_job.py:1589} INFO - Processing file /home/suraj/airflow/dags/dag1.py for tasks to queue
[2020-10-17 09:22:07,024] {logging_mixin.py:112} INFO - [2020-10-17 09:22:07,024] {dagbag.py:417} INFO - Filling up the DagBag from /home/suraj/airflow/dags/dag1.py
[2020-10-17 09:22:07,040] {scheduler_job.py:1603} WARNING - No viable dags retrieved from /home/suraj/airflow/dags/dag1.py
[2020-10-17 09:22:07,092] {scheduler_job.py:162} INFO - Processing /home/suraj/airflow/dags/dag1.py took 0.100 seconds
[2020-10-17 09:23:00,970] {scheduler_job.py:154} INFO - Started process (PID=2665) to work on /home/suraj/airflow/dags/dag1.py
[2020-10-17 09:23:00,977] {scheduler_job.py:1589} INFO - Processing file /home/suraj/airflow/dags/dag1.py for tasks to queue
[2020-10-17 09:23:00,977] {logging_mixin.py:112} INFO - [2020-10-17 09:23:00,977] {dagbag.py:417} INFO - Filling up the DagBag from /home/suraj/airflow/dags/dag1.py
[2020-10-17 09:23:00,979] {scheduler_job.py:1603} WARNING - No viable dags retrieved from /home/suraj/airflow/dags/dag1.py
[2020-10-17 09:23:00,994] {scheduler_job.py:162} INFO - Processing /home/suraj/airflow/dags/dag1.py took 0.024 seconds
[2020-10-17 09:23:54,958] {scheduler_job.py:154} INFO - Started process (PID=2708) to work on /home/suraj/airflow/dags/dag1.py
[2020-10-17 09:23:54,963] {scheduler_job.py:1589} INFO - Processing file /home/suraj/airflow/dags/dag1.py for tasks to queue
[2020-10-17 09:23:54,964] {logging_mixin.py:112} INFO - [2020-10-17 09:23:54,964] {dagbag.py:417} INFO - Filling up the DagBag from /home/suraj/airflow/dags/dag1.py
[2020-10-17 09:23:54,967] {scheduler_job.py:1603} WARNING - No viable dags retrieved from /home/suraj/airflow/dags/dag1.py
[2020-10-17 09:23:54,977] {scheduler_job.py:162} INFO - Processing /home/suraj/airflow/dags/dag1.py took 0.020 seconds
[2020-10-17 09:24:48,995] {scheduler_job.py:154} INFO - Started process (PID=2743) to work on /home/suraj/airflow/dags/dag1.py
[2020-10-17 09:24:49,002] {scheduler_job.py:1589} INFO - Processing file /home/suraj/airflow/dags/dag1.py for tasks to queue
[2020-10-17 09:24:49,003] {logging_mixin.py:112} INFO - [2020-10-17 09:24:49,003] {dagbag.py:417} INFO - Filling up the DagBag from /home/suraj/airflow/dags/dag1.py
[2020-10-17 09:24:49,006] {scheduler_job.py:1603} WARNING - No viable dags retrieved from /home/suraj/airflow/dags/dag1.py
[2020-10-17 09:24:49,020] {scheduler_job.py:162} INFO - Processing /home/suraj/airflow/dags/dag1.py took 0.025 seconds
[2020-10-17 09:25:43,027] {scheduler_job.py:154} INFO - Started process (PID=2786) to work on /home/suraj/airflow/dags/dag1.py
[2020-10-17 09:25:43,034] {scheduler_job.py:1589} INFO - Processing file /home/suraj/airflow/dags/dag1.py for tasks to queue
[2020-10-17 09:25:43,035] {logging_mixin.py:112} INFO - [2020-10-17 09:25:43,034] {dagbag.py:417} INFO - Filling up the DagBag from /home/suraj/airflow/dags/dag1.py
[2020-10-17 09:25:43,038] {scheduler_job.py:1603} WARNING - No viable dags retrieved from /home/suraj/airflow/dags/dag1.py
[2020-10-17 09:25:43,049] {scheduler_job.py:162} INFO - Processing /home/suraj/airflow/dags/dag1.py took 0.022 seconds
[2020-10-17 09:26:37,160] {scheduler_job.py:154} INFO - Started process (PID=2829) to work on /home/suraj/airflow/dags/dag1.py
[2020-10-17 09:26:37,187] {scheduler_job.py:1589} INFO - Processing file /home/suraj/airflow/dags/dag1.py for tasks to queue
[2020-10-17 09:26:37,190] {logging_mixin.py:112} INFO - [2020-10-17 09:26:37,189] {dagbag.py:417} INFO - Filling up the DagBag from /home/suraj/airflow/dags/dag1.py
[2020-10-17 09:26:37,205] {scheduler_job.py:1603} WARNING - No viable dags retrieved from /home/suraj/airflow/dags/dag1.py
[2020-10-17 09:26:37,276] {scheduler_job.py:162} INFO - Processing /home/suraj/airflow/dags/dag1.py took 0.116 seconds
[2020-10-17 09:27:31,151] {scheduler_job.py:154} INFO - Started process (PID=2872) to work on /home/suraj/airflow/dags/dag1.py
[2020-10-17 09:27:31,161] {scheduler_job.py:1589} INFO - Processing file /home/suraj/airflow/dags/dag1.py for tasks to queue
[2020-10-17 09:27:31,163] {logging_mixin.py:112} INFO - [2020-10-17 09:27:31,163] {dagbag.py:417} INFO - Filling up the DagBag from /home/suraj/airflow/dags/dag1.py
[2020-10-17 09:27:31,168] {scheduler_job.py:1603} WARNING - No viable dags retrieved from /home/suraj/airflow/dags/dag1.py
[2020-10-17 09:27:31,185] {scheduler_job.py:162} INFO - Processing /home/suraj/airflow/dags/dag1.py took 0.034 seconds
[2020-10-17 09:28:25,145] {scheduler_job.py:154} INFO - Started process (PID=2907) to work on /home/suraj/airflow/dags/dag1.py
[2020-10-17 09:28:25,158] {scheduler_job.py:1589} INFO - Processing file /home/suraj/airflow/dags/dag1.py for tasks to queue
[2020-10-17 09:28:25,159] {logging_mixin.py:112} INFO - [2020-10-17 09:28:25,159] {dagbag.py:417} INFO - Filling up the DagBag from /home/suraj/airflow/dags/dag1.py
[2020-10-17 09:28:25,165] {scheduler_job.py:1603} WARNING - No viable dags retrieved from /home/suraj/airflow/dags/dag1.py
[2020-10-17 09:28:25,192] {scheduler_job.py:162} INFO - Processing /home/suraj/airflow/dags/dag1.py took 0.048 seconds
[2020-10-17 09:29:19,338] {scheduler_job.py:154} INFO - Started process (PID=2950) to work on /home/suraj/airflow/dags/dag1.py
[2020-10-17 09:29:19,346] {scheduler_job.py:1589} INFO - Processing file /home/suraj/airflow/dags/dag1.py for tasks to queue
[2020-10-17 09:29:19,347] {logging_mixin.py:112} INFO - [2020-10-17 09:29:19,347] {dagbag.py:417} INFO - Filling up the DagBag from /home/suraj/airflow/dags/dag1.py
[2020-10-17 09:29:19,350] {scheduler_job.py:1603} WARNING - No viable dags retrieved from /home/suraj/airflow/dags/dag1.py
[2020-10-17 09:29:19,363] {scheduler_job.py:162} INFO - Processing /home/suraj/airflow/dags/dag1.py took 0.026 seconds
[2020-10-17 09:30:13,312] {scheduler_job.py:154} INFO - Started process (PID=2993) to work on /home/suraj/airflow/dags/dag1.py
[2020-10-17 09:30:13,322] {scheduler_job.py:1589} INFO - Processing file /home/suraj/airflow/dags/dag1.py for tasks to queue
[2020-10-17 09:30:13,323] {logging_mixin.py:112} INFO - [2020-10-17 09:30:13,322] {dagbag.py:417} INFO - Filling up the DagBag from /home/suraj/airflow/dags/dag1.py
[2020-10-17 09:30:13,330] {scheduler_job.py:1603} WARNING - No viable dags retrieved from /home/suraj/airflow/dags/dag1.py
[2020-10-17 09:30:13,353] {scheduler_job.py:162} INFO - Processing /home/suraj/airflow/dags/dag1.py took 0.041 seconds
[2020-10-17 09:31:07,261] {scheduler_job.py:154} INFO - Started process (PID=3036) to work on /home/suraj/airflow/dags/dag1.py
[2020-10-17 09:31:07,268] {scheduler_job.py:1589} INFO - Processing file /home/suraj/airflow/dags/dag1.py for tasks to queue
[2020-10-17 09:31:07,269] {logging_mixin.py:112} INFO - [2020-10-17 09:31:07,268] {dagbag.py:417} INFO - Filling up the DagBag from /home/suraj/airflow/dags/dag1.py
[2020-10-17 09:31:07,272] {scheduler_job.py:1603} WARNING - No viable dags retrieved from /home/suraj/airflow/dags/dag1.py
[2020-10-17 09:31:07,286] {scheduler_job.py:162} INFO - Processing /home/suraj/airflow/dags/dag1.py took 0.025 seconds
[2020-10-17 09:32:01,345] {scheduler_job.py:154} INFO - Started process (PID=3071) to work on /home/suraj/airflow/dags/dag1.py
[2020-10-17 09:32:01,375] {scheduler_job.py:1589} INFO - Processing file /home/suraj/airflow/dags/dag1.py for tasks to queue
[2020-10-17 09:32:01,379] {logging_mixin.py:112} INFO - [2020-10-17 09:32:01,378] {dagbag.py:417} INFO - Filling up the DagBag from /home/suraj/airflow/dags/dag1.py
[2020-10-17 09:32:01,395] {scheduler_job.py:1603} WARNING - No viable dags retrieved from /home/suraj/airflow/dags/dag1.py
[2020-10-17 09:32:01,465] {scheduler_job.py:162} INFO - Processing /home/suraj/airflow/dags/dag1.py took 0.121 seconds
[2020-10-17 09:32:55,337] {scheduler_job.py:154} INFO - Started process (PID=3114) to work on /home/suraj/airflow/dags/dag1.py
[2020-10-17 09:32:55,345] {scheduler_job.py:1589} INFO - Processing file /home/suraj/airflow/dags/dag1.py for tasks to queue
[2020-10-17 09:32:55,346] {logging_mixin.py:112} INFO - [2020-10-17 09:32:55,346] {dagbag.py:417} INFO - Filling up the DagBag from /home/suraj/airflow/dags/dag1.py
[2020-10-17 09:32:55,350] {scheduler_job.py:1603} WARNING - No viable dags retrieved from /home/suraj/airflow/dags/dag1.py
[2020-10-17 09:32:55,366] {scheduler_job.py:162} INFO - Processing /home/suraj/airflow/dags/dag1.py took 0.029 seconds
[2020-10-17 09:33:49,429] {scheduler_job.py:154} INFO - Started process (PID=3157) to work on /home/suraj/airflow/dags/dag1.py
[2020-10-17 09:33:49,445] {scheduler_job.py:1589} INFO - Processing file /home/suraj/airflow/dags/dag1.py for tasks to queue
[2020-10-17 09:33:49,446] {logging_mixin.py:112} INFO - [2020-10-17 09:33:49,446] {dagbag.py:417} INFO - Filling up the DagBag from /home/suraj/airflow/dags/dag1.py
[2020-10-17 09:33:49,454] {scheduler_job.py:1603} WARNING - No viable dags retrieved from /home/suraj/airflow/dags/dag1.py
[2020-10-17 09:33:49,476] {scheduler_job.py:162} INFO - Processing /home/suraj/airflow/dags/dag1.py took 0.047 seconds
[2020-10-17 09:34:43,463] {scheduler_job.py:154} INFO - Started process (PID=3200) to work on /home/suraj/airflow/dags/dag1.py
[2020-10-17 09:34:43,474] {scheduler_job.py:1589} INFO - Processing file /home/suraj/airflow/dags/dag1.py for tasks to queue
[2020-10-17 09:34:43,475] {logging_mixin.py:112} INFO - [2020-10-17 09:34:43,475] {dagbag.py:417} INFO - Filling up the DagBag from /home/suraj/airflow/dags/dag1.py
[2020-10-17 09:34:43,479] {scheduler_job.py:1603} WARNING - No viable dags retrieved from /home/suraj/airflow/dags/dag1.py
[2020-10-17 09:34:43,494] {scheduler_job.py:162} INFO - Processing /home/suraj/airflow/dags/dag1.py took 0.032 seconds
[2020-10-17 09:35:37,509] {scheduler_job.py:154} INFO - Started process (PID=3235) to work on /home/suraj/airflow/dags/dag1.py
[2020-10-17 09:35:37,520] {scheduler_job.py:1589} INFO - Processing file /home/suraj/airflow/dags/dag1.py for tasks to queue
[2020-10-17 09:35:37,521] {logging_mixin.py:112} INFO - [2020-10-17 09:35:37,520] {dagbag.py:417} INFO - Filling up the DagBag from /home/suraj/airflow/dags/dag1.py
[2020-10-17 09:35:37,525] {scheduler_job.py:1603} WARNING - No viable dags retrieved from /home/suraj/airflow/dags/dag1.py
[2020-10-17 09:35:37,539] {scheduler_job.py:162} INFO - Processing /home/suraj/airflow/dags/dag1.py took 0.031 seconds
[2020-10-17 09:36:31,516] {scheduler_job.py:154} INFO - Started process (PID=3278) to work on /home/suraj/airflow/dags/dag1.py
[2020-10-17 09:36:31,523] {scheduler_job.py:1589} INFO - Processing file /home/suraj/airflow/dags/dag1.py for tasks to queue
[2020-10-17 09:36:31,524] {logging_mixin.py:112} INFO - [2020-10-17 09:36:31,524] {dagbag.py:417} INFO - Filling up the DagBag from /home/suraj/airflow/dags/dag1.py
[2020-10-17 09:36:31,527] {scheduler_job.py:1603} WARNING - No viable dags retrieved from /home/suraj/airflow/dags/dag1.py
[2020-10-17 09:36:31,540] {scheduler_job.py:162} INFO - Processing /home/suraj/airflow/dags/dag1.py took 0.025 seconds
[2020-10-17 09:37:25,561] {scheduler_job.py:154} INFO - Started process (PID=3321) to work on /home/suraj/airflow/dags/dag1.py
[2020-10-17 09:37:25,568] {scheduler_job.py:1589} INFO - Processing file /home/suraj/airflow/dags/dag1.py for tasks to queue
[2020-10-17 09:37:25,568] {logging_mixin.py:112} INFO - [2020-10-17 09:37:25,568] {dagbag.py:417} INFO - Filling up the DagBag from /home/suraj/airflow/dags/dag1.py
[2020-10-17 09:37:25,573] {scheduler_job.py:1603} WARNING - No viable dags retrieved from /home/suraj/airflow/dags/dag1.py
[2020-10-17 09:37:25,594] {scheduler_job.py:162} INFO - Processing /home/suraj/airflow/dags/dag1.py took 0.033 seconds
[2020-10-17 09:38:19,583] {scheduler_job.py:154} INFO - Started process (PID=3364) to work on /home/suraj/airflow/dags/dag1.py
[2020-10-17 09:38:19,592] {scheduler_job.py:1589} INFO - Processing file /home/suraj/airflow/dags/dag1.py for tasks to queue
[2020-10-17 09:38:19,593] {logging_mixin.py:112} INFO - [2020-10-17 09:38:19,593] {dagbag.py:417} INFO - Filling up the DagBag from /home/suraj/airflow/dags/dag1.py
[2020-10-17 09:38:19,596] {scheduler_job.py:1603} WARNING - No viable dags retrieved from /home/suraj/airflow/dags/dag1.py
[2020-10-17 09:38:19,611] {scheduler_job.py:162} INFO - Processing /home/suraj/airflow/dags/dag1.py took 0.029 seconds
[2020-10-17 09:39:13,635] {scheduler_job.py:154} INFO - Started process (PID=3399) to work on /home/suraj/airflow/dags/dag1.py
[2020-10-17 09:39:13,640] {scheduler_job.py:1589} INFO - Processing file /home/suraj/airflow/dags/dag1.py for tasks to queue
[2020-10-17 09:39:13,642] {logging_mixin.py:112} INFO - [2020-10-17 09:39:13,640] {dagbag.py:417} INFO - Filling up the DagBag from /home/suraj/airflow/dags/dag1.py
[2020-10-17 09:39:13,645] {scheduler_job.py:1603} WARNING - No viable dags retrieved from /home/suraj/airflow/dags/dag1.py
[2020-10-17 09:39:13,657] {scheduler_job.py:162} INFO - Processing /home/suraj/airflow/dags/dag1.py took 0.022 seconds
[2020-10-17 09:40:07,675] {scheduler_job.py:154} INFO - Started process (PID=3442) to work on /home/suraj/airflow/dags/dag1.py
[2020-10-17 09:40:07,683] {scheduler_job.py:1589} INFO - Processing file /home/suraj/airflow/dags/dag1.py for tasks to queue
[2020-10-17 09:40:07,683] {logging_mixin.py:112} INFO - [2020-10-17 09:40:07,683] {dagbag.py:417} INFO - Filling up the DagBag from /home/suraj/airflow/dags/dag1.py
[2020-10-17 09:40:07,687] {scheduler_job.py:1603} WARNING - No viable dags retrieved from /home/suraj/airflow/dags/dag1.py
[2020-10-17 09:40:07,701] {scheduler_job.py:162} INFO - Processing /home/suraj/airflow/dags/dag1.py took 0.026 seconds
[2020-10-17 11:22:54,807] {scheduler_job.py:154} INFO - Started process (PID=3525) to work on /home/suraj/airflow/dags/dag1.py
[2020-10-17 11:22:54,812] {scheduler_job.py:1589} INFO - Processing file /home/suraj/airflow/dags/dag1.py for tasks to queue
[2020-10-17 11:22:54,813] {logging_mixin.py:112} INFO - [2020-10-17 11:22:54,813] {dagbag.py:417} INFO - Filling up the DagBag from /home/suraj/airflow/dags/dag1.py
[2020-10-17 11:22:54,817] {scheduler_job.py:1603} WARNING - No viable dags retrieved from /home/suraj/airflow/dags/dag1.py
[2020-10-17 11:22:54,828] {scheduler_job.py:162} INFO - Processing /home/suraj/airflow/dags/dag1.py took 0.022 seconds
[2020-10-17 11:23:48,843] {scheduler_job.py:154} INFO - Started process (PID=3560) to work on /home/suraj/airflow/dags/dag1.py
[2020-10-17 11:23:48,848] {scheduler_job.py:1589} INFO - Processing file /home/suraj/airflow/dags/dag1.py for tasks to queue
[2020-10-17 11:23:48,849] {logging_mixin.py:112} INFO - [2020-10-17 11:23:48,849] {dagbag.py:417} INFO - Filling up the DagBag from /home/suraj/airflow/dags/dag1.py
[2020-10-17 11:23:48,851] {scheduler_job.py:1603} WARNING - No viable dags retrieved from /home/suraj/airflow/dags/dag1.py
[2020-10-17 11:23:48,862] {scheduler_job.py:162} INFO - Processing /home/suraj/airflow/dags/dag1.py took 0.019 seconds
[2020-10-17 11:24:42,881] {scheduler_job.py:154} INFO - Started process (PID=3603) to work on /home/suraj/airflow/dags/dag1.py
[2020-10-17 11:24:42,886] {scheduler_job.py:1589} INFO - Processing file /home/suraj/airflow/dags/dag1.py for tasks to queue
[2020-10-17 11:24:42,887] {logging_mixin.py:112} INFO - [2020-10-17 11:24:42,887] {dagbag.py:417} INFO - Filling up the DagBag from /home/suraj/airflow/dags/dag1.py
[2020-10-17 11:24:42,889] {scheduler_job.py:1603} WARNING - No viable dags retrieved from /home/suraj/airflow/dags/dag1.py
[2020-10-17 11:24:42,901] {scheduler_job.py:162} INFO - Processing /home/suraj/airflow/dags/dag1.py took 0.019 seconds
[2020-10-17 11:25:36,921] {scheduler_job.py:154} INFO - Started process (PID=3646) to work on /home/suraj/airflow/dags/dag1.py
[2020-10-17 11:25:36,925] {scheduler_job.py:1589} INFO - Processing file /home/suraj/airflow/dags/dag1.py for tasks to queue
[2020-10-17 11:25:36,926] {logging_mixin.py:112} INFO - [2020-10-17 11:25:36,926] {dagbag.py:417} INFO - Filling up the DagBag from /home/suraj/airflow/dags/dag1.py
[2020-10-17 11:25:36,928] {scheduler_job.py:1603} WARNING - No viable dags retrieved from /home/suraj/airflow/dags/dag1.py
[2020-10-17 11:25:36,939] {scheduler_job.py:162} INFO - Processing /home/suraj/airflow/dags/dag1.py took 0.018 seconds
[2020-10-17 11:26:30,983] {scheduler_job.py:154} INFO - Started process (PID=3689) to work on /home/suraj/airflow/dags/dag1.py
[2020-10-17 11:26:30,987] {scheduler_job.py:1589} INFO - Processing file /home/suraj/airflow/dags/dag1.py for tasks to queue
[2020-10-17 11:26:30,989] {logging_mixin.py:112} INFO - [2020-10-17 11:26:30,988] {dagbag.py:417} INFO - Filling up the DagBag from /home/suraj/airflow/dags/dag1.py
[2020-10-17 11:26:30,991] {scheduler_job.py:1603} WARNING - No viable dags retrieved from /home/suraj/airflow/dags/dag1.py
[2020-10-17 11:26:31,001] {scheduler_job.py:162} INFO - Processing /home/suraj/airflow/dags/dag1.py took 0.018 seconds
[2020-10-17 11:27:25,005] {scheduler_job.py:154} INFO - Started process (PID=3724) to work on /home/suraj/airflow/dags/dag1.py
[2020-10-17 11:27:25,011] {scheduler_job.py:1589} INFO - Processing file /home/suraj/airflow/dags/dag1.py for tasks to queue
[2020-10-17 11:27:25,011] {logging_mixin.py:112} INFO - [2020-10-17 11:27:25,011] {dagbag.py:417} INFO - Filling up the DagBag from /home/suraj/airflow/dags/dag1.py
[2020-10-17 11:27:25,013] {scheduler_job.py:1603} WARNING - No viable dags retrieved from /home/suraj/airflow/dags/dag1.py
[2020-10-17 11:27:25,026] {scheduler_job.py:162} INFO - Processing /home/suraj/airflow/dags/dag1.py took 0.021 seconds
[2020-10-17 11:28:19,047] {scheduler_job.py:154} INFO - Started process (PID=3767) to work on /home/suraj/airflow/dags/dag1.py
[2020-10-17 11:28:19,053] {scheduler_job.py:1589} INFO - Processing file /home/suraj/airflow/dags/dag1.py for tasks to queue
[2020-10-17 11:28:19,053] {logging_mixin.py:112} INFO - [2020-10-17 11:28:19,053] {dagbag.py:417} INFO - Filling up the DagBag from /home/suraj/airflow/dags/dag1.py
[2020-10-17 11:28:19,056] {scheduler_job.py:1603} WARNING - No viable dags retrieved from /home/suraj/airflow/dags/dag1.py
[2020-10-17 11:28:19,069] {scheduler_job.py:162} INFO - Processing /home/suraj/airflow/dags/dag1.py took 0.022 seconds
[2020-10-17 11:29:13,074] {scheduler_job.py:154} INFO - Started process (PID=3810) to work on /home/suraj/airflow/dags/dag1.py
[2020-10-17 11:29:13,080] {scheduler_job.py:1589} INFO - Processing file /home/suraj/airflow/dags/dag1.py for tasks to queue
[2020-10-17 11:29:13,081] {logging_mixin.py:112} INFO - [2020-10-17 11:29:13,081] {dagbag.py:417} INFO - Filling up the DagBag from /home/suraj/airflow/dags/dag1.py
[2020-10-17 11:29:13,084] {scheduler_job.py:1603} WARNING - No viable dags retrieved from /home/suraj/airflow/dags/dag1.py
[2020-10-17 11:29:13,098] {scheduler_job.py:162} INFO - Processing /home/suraj/airflow/dags/dag1.py took 0.024 seconds
[2020-10-17 11:30:07,102] {scheduler_job.py:154} INFO - Started process (PID=3853) to work on /home/suraj/airflow/dags/dag1.py
[2020-10-17 11:30:07,108] {scheduler_job.py:1589} INFO - Processing file /home/suraj/airflow/dags/dag1.py for tasks to queue
[2020-10-17 11:30:07,110] {logging_mixin.py:112} INFO - [2020-10-17 11:30:07,109] {dagbag.py:417} INFO - Filling up the DagBag from /home/suraj/airflow/dags/dag1.py
[2020-10-17 11:30:07,112] {scheduler_job.py:1603} WARNING - No viable dags retrieved from /home/suraj/airflow/dags/dag1.py
[2020-10-17 11:30:07,122] {scheduler_job.py:162} INFO - Processing /home/suraj/airflow/dags/dag1.py took 0.021 seconds
[2020-10-17 11:31:01,138] {scheduler_job.py:154} INFO - Started process (PID=3896) to work on /home/suraj/airflow/dags/dag1.py
[2020-10-17 11:31:01,144] {scheduler_job.py:1589} INFO - Processing file /home/suraj/airflow/dags/dag1.py for tasks to queue
[2020-10-17 11:31:01,145] {logging_mixin.py:112} INFO - [2020-10-17 11:31:01,145] {dagbag.py:417} INFO - Filling up the DagBag from /home/suraj/airflow/dags/dag1.py
[2020-10-17 11:31:01,151] {scheduler_job.py:1603} WARNING - No viable dags retrieved from /home/suraj/airflow/dags/dag1.py
[2020-10-17 11:31:01,162] {scheduler_job.py:162} INFO - Processing /home/suraj/airflow/dags/dag1.py took 0.024 seconds
[2020-10-17 11:31:55,183] {scheduler_job.py:154} INFO - Started process (PID=3931) to work on /home/suraj/airflow/dags/dag1.py
[2020-10-17 11:31:55,188] {scheduler_job.py:1589} INFO - Processing file /home/suraj/airflow/dags/dag1.py for tasks to queue
[2020-10-17 11:31:55,188] {logging_mixin.py:112} INFO - [2020-10-17 11:31:55,188] {dagbag.py:417} INFO - Filling up the DagBag from /home/suraj/airflow/dags/dag1.py
[2020-10-17 11:31:55,191] {scheduler_job.py:1603} WARNING - No viable dags retrieved from /home/suraj/airflow/dags/dag1.py
[2020-10-17 11:31:55,202] {scheduler_job.py:162} INFO - Processing /home/suraj/airflow/dags/dag1.py took 0.019 seconds
[2020-10-17 11:32:49,206] {scheduler_job.py:154} INFO - Started process (PID=3974) to work on /home/suraj/airflow/dags/dag1.py
[2020-10-17 11:32:49,212] {scheduler_job.py:1589} INFO - Processing file /home/suraj/airflow/dags/dag1.py for tasks to queue
[2020-10-17 11:32:49,213] {logging_mixin.py:112} INFO - [2020-10-17 11:32:49,213] {dagbag.py:417} INFO - Filling up the DagBag from /home/suraj/airflow/dags/dag1.py
[2020-10-17 11:32:49,215] {scheduler_job.py:1603} WARNING - No viable dags retrieved from /home/suraj/airflow/dags/dag1.py
[2020-10-17 11:32:49,229] {scheduler_job.py:162} INFO - Processing /home/suraj/airflow/dags/dag1.py took 0.023 seconds
[2020-10-17 11:33:43,246] {scheduler_job.py:154} INFO - Started process (PID=4017) to work on /home/suraj/airflow/dags/dag1.py
[2020-10-17 11:33:43,258] {scheduler_job.py:1589} INFO - Processing file /home/suraj/airflow/dags/dag1.py for tasks to queue
[2020-10-17 11:33:43,259] {logging_mixin.py:112} INFO - [2020-10-17 11:33:43,258] {dagbag.py:417} INFO - Filling up the DagBag from /home/suraj/airflow/dags/dag1.py
[2020-10-17 11:33:43,262] {scheduler_job.py:1603} WARNING - No viable dags retrieved from /home/suraj/airflow/dags/dag1.py
[2020-10-17 11:33:43,278] {scheduler_job.py:162} INFO - Processing /home/suraj/airflow/dags/dag1.py took 0.032 seconds
[2020-10-17 11:34:37,281] {scheduler_job.py:154} INFO - Started process (PID=4060) to work on /home/suraj/airflow/dags/dag1.py
[2020-10-17 11:34:37,285] {scheduler_job.py:1589} INFO - Processing file /home/suraj/airflow/dags/dag1.py for tasks to queue
[2020-10-17 11:34:37,287] {logging_mixin.py:112} INFO - [2020-10-17 11:34:37,286] {dagbag.py:417} INFO - Filling up the DagBag from /home/suraj/airflow/dags/dag1.py
[2020-10-17 11:34:37,291] {scheduler_job.py:1603} WARNING - No viable dags retrieved from /home/suraj/airflow/dags/dag1.py
[2020-10-17 11:34:37,302] {scheduler_job.py:162} INFO - Processing /home/suraj/airflow/dags/dag1.py took 0.021 seconds
[2020-10-17 11:35:31,303] {scheduler_job.py:154} INFO - Started process (PID=4095) to work on /home/suraj/airflow/dags/dag1.py
[2020-10-17 11:35:31,308] {scheduler_job.py:1589} INFO - Processing file /home/suraj/airflow/dags/dag1.py for tasks to queue
[2020-10-17 11:35:31,309] {logging_mixin.py:112} INFO - [2020-10-17 11:35:31,309] {dagbag.py:417} INFO - Filling up the DagBag from /home/suraj/airflow/dags/dag1.py
[2020-10-17 11:35:31,311] {scheduler_job.py:1603} WARNING - No viable dags retrieved from /home/suraj/airflow/dags/dag1.py
[2020-10-17 11:35:31,323] {scheduler_job.py:162} INFO - Processing /home/suraj/airflow/dags/dag1.py took 0.020 seconds
[2020-10-17 11:36:25,338] {scheduler_job.py:154} INFO - Started process (PID=4138) to work on /home/suraj/airflow/dags/dag1.py
[2020-10-17 11:36:25,343] {scheduler_job.py:1589} INFO - Processing file /home/suraj/airflow/dags/dag1.py for tasks to queue
[2020-10-17 11:36:25,344] {logging_mixin.py:112} INFO - [2020-10-17 11:36:25,344] {dagbag.py:417} INFO - Filling up the DagBag from /home/suraj/airflow/dags/dag1.py
[2020-10-17 11:36:25,347] {scheduler_job.py:1603} WARNING - No viable dags retrieved from /home/suraj/airflow/dags/dag1.py
[2020-10-17 11:36:25,360] {scheduler_job.py:162} INFO - Processing /home/suraj/airflow/dags/dag1.py took 0.021 seconds
[2020-10-17 11:37:19,408] {scheduler_job.py:154} INFO - Started process (PID=4181) to work on /home/suraj/airflow/dags/dag1.py
[2020-10-17 11:37:19,415] {scheduler_job.py:1589} INFO - Processing file /home/suraj/airflow/dags/dag1.py for tasks to queue
[2020-10-17 11:37:19,416] {logging_mixin.py:112} INFO - [2020-10-17 11:37:19,416] {dagbag.py:417} INFO - Filling up the DagBag from /home/suraj/airflow/dags/dag1.py
[2020-10-17 11:37:19,422] {scheduler_job.py:1603} WARNING - No viable dags retrieved from /home/suraj/airflow/dags/dag1.py
[2020-10-17 11:37:19,434] {scheduler_job.py:162} INFO - Processing /home/suraj/airflow/dags/dag1.py took 0.026 seconds
[2020-10-17 11:38:13,411] {scheduler_job.py:154} INFO - Started process (PID=4224) to work on /home/suraj/airflow/dags/dag1.py
[2020-10-17 11:38:13,417] {scheduler_job.py:1589} INFO - Processing file /home/suraj/airflow/dags/dag1.py for tasks to queue
[2020-10-17 11:38:13,418] {logging_mixin.py:112} INFO - [2020-10-17 11:38:13,418] {dagbag.py:417} INFO - Filling up the DagBag from /home/suraj/airflow/dags/dag1.py
[2020-10-17 11:38:13,420] {scheduler_job.py:1603} WARNING - No viable dags retrieved from /home/suraj/airflow/dags/dag1.py
[2020-10-17 11:38:13,433] {scheduler_job.py:162} INFO - Processing /home/suraj/airflow/dags/dag1.py took 0.022 seconds
[2020-10-17 11:39:07,465] {scheduler_job.py:154} INFO - Started process (PID=4259) to work on /home/suraj/airflow/dags/dag1.py
[2020-10-17 11:39:07,472] {scheduler_job.py:1589} INFO - Processing file /home/suraj/airflow/dags/dag1.py for tasks to queue
[2020-10-17 11:39:07,472] {logging_mixin.py:112} INFO - [2020-10-17 11:39:07,472] {dagbag.py:417} INFO - Filling up the DagBag from /home/suraj/airflow/dags/dag1.py
[2020-10-17 11:39:07,475] {scheduler_job.py:1603} WARNING - No viable dags retrieved from /home/suraj/airflow/dags/dag1.py
[2020-10-17 11:39:07,490] {scheduler_job.py:162} INFO - Processing /home/suraj/airflow/dags/dag1.py took 0.025 seconds
[2020-10-17 11:40:01,525] {scheduler_job.py:154} INFO - Started process (PID=4302) to work on /home/suraj/airflow/dags/dag1.py
[2020-10-17 11:40:01,531] {scheduler_job.py:1589} INFO - Processing file /home/suraj/airflow/dags/dag1.py for tasks to queue
[2020-10-17 11:40:01,531] {logging_mixin.py:112} INFO - [2020-10-17 11:40:01,531] {dagbag.py:417} INFO - Filling up the DagBag from /home/suraj/airflow/dags/dag1.py
[2020-10-17 11:40:01,534] {scheduler_job.py:1603} WARNING - No viable dags retrieved from /home/suraj/airflow/dags/dag1.py
[2020-10-17 11:40:01,548] {scheduler_job.py:162} INFO - Processing /home/suraj/airflow/dags/dag1.py took 0.023 seconds
[2020-10-17 11:40:55,525] {scheduler_job.py:154} INFO - Started process (PID=4345) to work on /home/suraj/airflow/dags/dag1.py
[2020-10-17 11:40:55,533] {scheduler_job.py:1589} INFO - Processing file /home/suraj/airflow/dags/dag1.py for tasks to queue
[2020-10-17 11:40:55,534] {logging_mixin.py:112} INFO - [2020-10-17 11:40:55,533] {dagbag.py:417} INFO - Filling up the DagBag from /home/suraj/airflow/dags/dag1.py
[2020-10-17 11:40:55,537] {scheduler_job.py:1603} WARNING - No viable dags retrieved from /home/suraj/airflow/dags/dag1.py
[2020-10-17 11:40:55,551] {scheduler_job.py:162} INFO - Processing /home/suraj/airflow/dags/dag1.py took 0.026 seconds
[2020-10-17 11:41:49,552] {scheduler_job.py:154} INFO - Started process (PID=4388) to work on /home/suraj/airflow/dags/dag1.py
[2020-10-17 11:41:49,558] {scheduler_job.py:1589} INFO - Processing file /home/suraj/airflow/dags/dag1.py for tasks to queue
[2020-10-17 11:41:49,559] {logging_mixin.py:112} INFO - [2020-10-17 11:41:49,558] {dagbag.py:417} INFO - Filling up the DagBag from /home/suraj/airflow/dags/dag1.py
[2020-10-17 11:41:49,561] {scheduler_job.py:1603} WARNING - No viable dags retrieved from /home/suraj/airflow/dags/dag1.py
[2020-10-17 11:41:49,574] {scheduler_job.py:162} INFO - Processing /home/suraj/airflow/dags/dag1.py took 0.022 seconds
[2020-10-17 11:42:43,596] {scheduler_job.py:154} INFO - Started process (PID=4423) to work on /home/suraj/airflow/dags/dag1.py
[2020-10-17 11:42:43,602] {scheduler_job.py:1589} INFO - Processing file /home/suraj/airflow/dags/dag1.py for tasks to queue
[2020-10-17 11:42:43,602] {logging_mixin.py:112} INFO - [2020-10-17 11:42:43,602] {dagbag.py:417} INFO - Filling up the DagBag from /home/suraj/airflow/dags/dag1.py
[2020-10-17 11:42:43,610] {scheduler_job.py:1603} WARNING - No viable dags retrieved from /home/suraj/airflow/dags/dag1.py
[2020-10-17 11:42:43,623] {scheduler_job.py:162} INFO - Processing /home/suraj/airflow/dags/dag1.py took 0.027 seconds
[2020-10-17 11:43:37,709] {scheduler_job.py:154} INFO - Started process (PID=4466) to work on /home/suraj/airflow/dags/dag1.py
[2020-10-17 11:43:37,718] {scheduler_job.py:1589} INFO - Processing file /home/suraj/airflow/dags/dag1.py for tasks to queue
[2020-10-17 11:43:37,719] {logging_mixin.py:112} INFO - [2020-10-17 11:43:37,719] {dagbag.py:417} INFO - Filling up the DagBag from /home/suraj/airflow/dags/dag1.py
[2020-10-17 11:43:37,722] {scheduler_job.py:1603} WARNING - No viable dags retrieved from /home/suraj/airflow/dags/dag1.py
[2020-10-17 11:43:37,737] {scheduler_job.py:162} INFO - Processing /home/suraj/airflow/dags/dag1.py took 0.029 seconds
[2020-10-17 11:44:31,721] {scheduler_job.py:154} INFO - Started process (PID=4509) to work on /home/suraj/airflow/dags/dag1.py
[2020-10-17 11:44:31,732] {scheduler_job.py:1589} INFO - Processing file /home/suraj/airflow/dags/dag1.py for tasks to queue
[2020-10-17 11:44:31,733] {logging_mixin.py:112} INFO - [2020-10-17 11:44:31,733] {dagbag.py:417} INFO - Filling up the DagBag from /home/suraj/airflow/dags/dag1.py
[2020-10-17 11:44:31,738] {scheduler_job.py:1603} WARNING - No viable dags retrieved from /home/suraj/airflow/dags/dag1.py
[2020-10-17 11:44:31,755] {scheduler_job.py:162} INFO - Processing /home/suraj/airflow/dags/dag1.py took 0.034 seconds
[2020-10-17 11:45:25,761] {scheduler_job.py:154} INFO - Started process (PID=4552) to work on /home/suraj/airflow/dags/dag1.py
[2020-10-17 11:45:25,768] {scheduler_job.py:1589} INFO - Processing file /home/suraj/airflow/dags/dag1.py for tasks to queue
[2020-10-17 11:45:25,770] {logging_mixin.py:112} INFO - [2020-10-17 11:45:25,769] {dagbag.py:417} INFO - Filling up the DagBag from /home/suraj/airflow/dags/dag1.py
[2020-10-17 11:45:25,775] {scheduler_job.py:1603} WARNING - No viable dags retrieved from /home/suraj/airflow/dags/dag1.py
[2020-10-17 11:45:25,793] {scheduler_job.py:162} INFO - Processing /home/suraj/airflow/dags/dag1.py took 0.032 seconds
[2020-10-17 11:46:19,747] {scheduler_job.py:154} INFO - Started process (PID=4595) to work on /home/suraj/airflow/dags/dag1.py
[2020-10-17 11:46:19,753] {scheduler_job.py:1589} INFO - Processing file /home/suraj/airflow/dags/dag1.py for tasks to queue
[2020-10-17 11:46:19,754] {logging_mixin.py:112} INFO - [2020-10-17 11:46:19,754] {dagbag.py:417} INFO - Filling up the DagBag from /home/suraj/airflow/dags/dag1.py
[2020-10-17 11:46:19,756] {scheduler_job.py:1603} WARNING - No viable dags retrieved from /home/suraj/airflow/dags/dag1.py
[2020-10-17 11:46:19,771] {scheduler_job.py:162} INFO - Processing /home/suraj/airflow/dags/dag1.py took 0.023 seconds
[2020-10-17 11:47:13,779] {scheduler_job.py:154} INFO - Started process (PID=4630) to work on /home/suraj/airflow/dags/dag1.py
[2020-10-17 11:47:13,786] {scheduler_job.py:1589} INFO - Processing file /home/suraj/airflow/dags/dag1.py for tasks to queue
[2020-10-17 11:47:13,786] {logging_mixin.py:112} INFO - [2020-10-17 11:47:13,786] {dagbag.py:417} INFO - Filling up the DagBag from /home/suraj/airflow/dags/dag1.py
[2020-10-17 11:47:13,790] {scheduler_job.py:1603} WARNING - No viable dags retrieved from /home/suraj/airflow/dags/dag1.py
[2020-10-17 11:47:13,804] {scheduler_job.py:162} INFO - Processing /home/suraj/airflow/dags/dag1.py took 0.025 seconds
[2020-10-17 11:48:07,863] {scheduler_job.py:154} INFO - Started process (PID=4673) to work on /home/suraj/airflow/dags/dag1.py
[2020-10-17 11:48:07,875] {scheduler_job.py:1589} INFO - Processing file /home/suraj/airflow/dags/dag1.py for tasks to queue
[2020-10-17 11:48:07,875] {logging_mixin.py:112} INFO - [2020-10-17 11:48:07,875] {dagbag.py:417} INFO - Filling up the DagBag from /home/suraj/airflow/dags/dag1.py
[2020-10-17 11:48:07,880] {scheduler_job.py:1603} WARNING - No viable dags retrieved from /home/suraj/airflow/dags/dag1.py
[2020-10-17 11:48:07,894] {scheduler_job.py:162} INFO - Processing /home/suraj/airflow/dags/dag1.py took 0.032 seconds
[2020-10-17 11:49:01,888] {scheduler_job.py:154} INFO - Started process (PID=4716) to work on /home/suraj/airflow/dags/dag1.py
[2020-10-17 11:49:01,896] {scheduler_job.py:1589} INFO - Processing file /home/suraj/airflow/dags/dag1.py for tasks to queue
[2020-10-17 11:49:01,897] {logging_mixin.py:112} INFO - [2020-10-17 11:49:01,896] {dagbag.py:417} INFO - Filling up the DagBag from /home/suraj/airflow/dags/dag1.py
[2020-10-17 11:49:01,899] {scheduler_job.py:1603} WARNING - No viable dags retrieved from /home/suraj/airflow/dags/dag1.py
[2020-10-17 11:49:01,913] {scheduler_job.py:162} INFO - Processing /home/suraj/airflow/dags/dag1.py took 0.025 seconds
[2020-10-17 11:49:55,903] {scheduler_job.py:154} INFO - Started process (PID=4759) to work on /home/suraj/airflow/dags/dag1.py
[2020-10-17 11:49:55,908] {scheduler_job.py:1589} INFO - Processing file /home/suraj/airflow/dags/dag1.py for tasks to queue
[2020-10-17 11:49:55,909] {logging_mixin.py:112} INFO - [2020-10-17 11:49:55,909] {dagbag.py:417} INFO - Filling up the DagBag from /home/suraj/airflow/dags/dag1.py
[2020-10-17 11:49:55,911] {scheduler_job.py:1603} WARNING - No viable dags retrieved from /home/suraj/airflow/dags/dag1.py
[2020-10-17 11:49:55,923] {scheduler_job.py:162} INFO - Processing /home/suraj/airflow/dags/dag1.py took 0.019 seconds
[2020-10-17 11:50:49,931] {scheduler_job.py:154} INFO - Started process (PID=4794) to work on /home/suraj/airflow/dags/dag1.py
[2020-10-17 11:50:49,936] {scheduler_job.py:1589} INFO - Processing file /home/suraj/airflow/dags/dag1.py for tasks to queue
[2020-10-17 11:50:49,936] {logging_mixin.py:112} INFO - [2020-10-17 11:50:49,936] {dagbag.py:417} INFO - Filling up the DagBag from /home/suraj/airflow/dags/dag1.py
[2020-10-17 11:50:49,939] {scheduler_job.py:1603} WARNING - No viable dags retrieved from /home/suraj/airflow/dags/dag1.py
[2020-10-17 11:50:49,951] {scheduler_job.py:162} INFO - Processing /home/suraj/airflow/dags/dag1.py took 0.020 seconds
[2020-10-17 11:51:43,964] {scheduler_job.py:154} INFO - Started process (PID=4837) to work on /home/suraj/airflow/dags/dag1.py
[2020-10-17 11:51:43,968] {scheduler_job.py:1589} INFO - Processing file /home/suraj/airflow/dags/dag1.py for tasks to queue
[2020-10-17 11:51:43,969] {logging_mixin.py:112} INFO - [2020-10-17 11:51:43,969] {dagbag.py:417} INFO - Filling up the DagBag from /home/suraj/airflow/dags/dag1.py
[2020-10-17 11:51:43,971] {scheduler_job.py:1603} WARNING - No viable dags retrieved from /home/suraj/airflow/dags/dag1.py
[2020-10-17 11:51:43,984] {scheduler_job.py:162} INFO - Processing /home/suraj/airflow/dags/dag1.py took 0.020 seconds
[2020-10-17 11:52:38,013] {scheduler_job.py:154} INFO - Started process (PID=4880) to work on /home/suraj/airflow/dags/dag1.py
[2020-10-17 11:52:38,020] {scheduler_job.py:1589} INFO - Processing file /home/suraj/airflow/dags/dag1.py for tasks to queue
[2020-10-17 11:52:38,020] {logging_mixin.py:112} INFO - [2020-10-17 11:52:38,020] {dagbag.py:417} INFO - Filling up the DagBag from /home/suraj/airflow/dags/dag1.py
[2020-10-17 11:52:38,023] {scheduler_job.py:1603} WARNING - No viable dags retrieved from /home/suraj/airflow/dags/dag1.py
[2020-10-17 11:52:38,035] {scheduler_job.py:162} INFO - Processing /home/suraj/airflow/dags/dag1.py took 0.022 seconds
[2020-10-17 11:53:32,034] {scheduler_job.py:154} INFO - Started process (PID=4923) to work on /home/suraj/airflow/dags/dag1.py
[2020-10-17 11:53:32,040] {scheduler_job.py:1589} INFO - Processing file /home/suraj/airflow/dags/dag1.py for tasks to queue
[2020-10-17 11:53:32,041] {logging_mixin.py:112} INFO - [2020-10-17 11:53:32,041] {dagbag.py:417} INFO - Filling up the DagBag from /home/suraj/airflow/dags/dag1.py
[2020-10-17 11:53:32,043] {scheduler_job.py:1603} WARNING - No viable dags retrieved from /home/suraj/airflow/dags/dag1.py
[2020-10-17 11:53:32,056] {scheduler_job.py:162} INFO - Processing /home/suraj/airflow/dags/dag1.py took 0.023 seconds
[2020-10-17 11:54:26,069] {scheduler_job.py:154} INFO - Started process (PID=4958) to work on /home/suraj/airflow/dags/dag1.py
[2020-10-17 11:54:26,074] {scheduler_job.py:1589} INFO - Processing file /home/suraj/airflow/dags/dag1.py for tasks to queue
[2020-10-17 11:54:26,075] {logging_mixin.py:112} INFO - [2020-10-17 11:54:26,075] {dagbag.py:417} INFO - Filling up the DagBag from /home/suraj/airflow/dags/dag1.py
[2020-10-17 11:54:26,078] {scheduler_job.py:1603} WARNING - No viable dags retrieved from /home/suraj/airflow/dags/dag1.py
[2020-10-17 11:54:26,090] {scheduler_job.py:162} INFO - Processing /home/suraj/airflow/dags/dag1.py took 0.022 seconds
[2020-10-17 11:55:20,141] {scheduler_job.py:154} INFO - Started process (PID=5001) to work on /home/suraj/airflow/dags/dag1.py
[2020-10-17 11:55:20,146] {scheduler_job.py:1589} INFO - Processing file /home/suraj/airflow/dags/dag1.py for tasks to queue
[2020-10-17 11:55:20,147] {logging_mixin.py:112} INFO - [2020-10-17 11:55:20,147] {dagbag.py:417} INFO - Filling up the DagBag from /home/suraj/airflow/dags/dag1.py
[2020-10-17 11:55:20,152] {scheduler_job.py:1603} WARNING - No viable dags retrieved from /home/suraj/airflow/dags/dag1.py
[2020-10-17 11:55:20,162] {scheduler_job.py:162} INFO - Processing /home/suraj/airflow/dags/dag1.py took 0.022 seconds
[2020-10-17 11:56:14,134] {scheduler_job.py:154} INFO - Started process (PID=5044) to work on /home/suraj/airflow/dags/dag1.py
[2020-10-17 11:56:14,142] {scheduler_job.py:1589} INFO - Processing file /home/suraj/airflow/dags/dag1.py for tasks to queue
[2020-10-17 11:56:14,143] {logging_mixin.py:112} INFO - [2020-10-17 11:56:14,143] {dagbag.py:417} INFO - Filling up the DagBag from /home/suraj/airflow/dags/dag1.py
[2020-10-17 11:56:14,145] {scheduler_job.py:1603} WARNING - No viable dags retrieved from /home/suraj/airflow/dags/dag1.py
[2020-10-17 11:56:14,158] {scheduler_job.py:162} INFO - Processing /home/suraj/airflow/dags/dag1.py took 0.024 seconds
[2020-10-17 11:57:08,180] {scheduler_job.py:154} INFO - Started process (PID=5087) to work on /home/suraj/airflow/dags/dag1.py
[2020-10-17 11:57:08,185] {scheduler_job.py:1589} INFO - Processing file /home/suraj/airflow/dags/dag1.py for tasks to queue
[2020-10-17 11:57:08,186] {logging_mixin.py:112} INFO - [2020-10-17 11:57:08,186] {dagbag.py:417} INFO - Filling up the DagBag from /home/suraj/airflow/dags/dag1.py
[2020-10-17 11:57:08,188] {scheduler_job.py:1603} WARNING - No viable dags retrieved from /home/suraj/airflow/dags/dag1.py
[2020-10-17 11:57:08,200] {scheduler_job.py:162} INFO - Processing /home/suraj/airflow/dags/dag1.py took 0.020 seconds
[2020-10-17 11:58:02,219] {scheduler_job.py:154} INFO - Started process (PID=5122) to work on /home/suraj/airflow/dags/dag1.py
[2020-10-17 11:58:02,225] {scheduler_job.py:1589} INFO - Processing file /home/suraj/airflow/dags/dag1.py for tasks to queue
[2020-10-17 11:58:02,226] {logging_mixin.py:112} INFO - [2020-10-17 11:58:02,226] {dagbag.py:417} INFO - Filling up the DagBag from /home/suraj/airflow/dags/dag1.py
[2020-10-17 11:58:02,229] {scheduler_job.py:1603} WARNING - No viable dags retrieved from /home/suraj/airflow/dags/dag1.py
[2020-10-17 11:58:02,244] {scheduler_job.py:162} INFO - Processing /home/suraj/airflow/dags/dag1.py took 0.025 seconds
[2020-10-17 11:58:56,262] {scheduler_job.py:154} INFO - Started process (PID=5165) to work on /home/suraj/airflow/dags/dag1.py
[2020-10-17 11:58:56,267] {scheduler_job.py:1589} INFO - Processing file /home/suraj/airflow/dags/dag1.py for tasks to queue
[2020-10-17 11:58:56,268] {logging_mixin.py:112} INFO - [2020-10-17 11:58:56,268] {dagbag.py:417} INFO - Filling up the DagBag from /home/suraj/airflow/dags/dag1.py
[2020-10-17 11:58:56,271] {scheduler_job.py:1603} WARNING - No viable dags retrieved from /home/suraj/airflow/dags/dag1.py
[2020-10-17 11:58:56,283] {scheduler_job.py:162} INFO - Processing /home/suraj/airflow/dags/dag1.py took 0.021 seconds
[2020-10-17 11:59:50,305] {scheduler_job.py:154} INFO - Started process (PID=5208) to work on /home/suraj/airflow/dags/dag1.py
[2020-10-17 11:59:50,313] {scheduler_job.py:1589} INFO - Processing file /home/suraj/airflow/dags/dag1.py for tasks to queue
[2020-10-17 11:59:50,315] {logging_mixin.py:112} INFO - [2020-10-17 11:59:50,314] {dagbag.py:417} INFO - Filling up the DagBag from /home/suraj/airflow/dags/dag1.py
[2020-10-17 11:59:50,318] {scheduler_job.py:1603} WARNING - No viable dags retrieved from /home/suraj/airflow/dags/dag1.py
[2020-10-17 11:59:50,331] {scheduler_job.py:162} INFO - Processing /home/suraj/airflow/dags/dag1.py took 0.026 seconds
[2020-10-17 12:00:44,308] {scheduler_job.py:154} INFO - Started process (PID=5251) to work on /home/suraj/airflow/dags/dag1.py
[2020-10-17 12:00:44,315] {scheduler_job.py:1589} INFO - Processing file /home/suraj/airflow/dags/dag1.py for tasks to queue
[2020-10-17 12:00:44,316] {logging_mixin.py:112} INFO - [2020-10-17 12:00:44,315] {dagbag.py:417} INFO - Filling up the DagBag from /home/suraj/airflow/dags/dag1.py
[2020-10-17 12:00:44,320] {scheduler_job.py:1603} WARNING - No viable dags retrieved from /home/suraj/airflow/dags/dag1.py
[2020-10-17 12:00:44,332] {scheduler_job.py:162} INFO - Processing /home/suraj/airflow/dags/dag1.py took 0.024 seconds
[2020-10-17 12:01:38,348] {scheduler_job.py:154} INFO - Started process (PID=5286) to work on /home/suraj/airflow/dags/dag1.py
[2020-10-17 12:01:38,353] {scheduler_job.py:1589} INFO - Processing file /home/suraj/airflow/dags/dag1.py for tasks to queue
[2020-10-17 12:01:38,353] {logging_mixin.py:112} INFO - [2020-10-17 12:01:38,353] {dagbag.py:417} INFO - Filling up the DagBag from /home/suraj/airflow/dags/dag1.py
[2020-10-17 12:01:38,358] {scheduler_job.py:1603} WARNING - No viable dags retrieved from /home/suraj/airflow/dags/dag1.py
[2020-10-17 12:01:38,370] {scheduler_job.py:162} INFO - Processing /home/suraj/airflow/dags/dag1.py took 0.022 seconds
[2020-10-17 12:02:32,393] {scheduler_job.py:154} INFO - Started process (PID=5329) to work on /home/suraj/airflow/dags/dag1.py
[2020-10-17 12:02:32,401] {scheduler_job.py:1589} INFO - Processing file /home/suraj/airflow/dags/dag1.py for tasks to queue
[2020-10-17 12:02:32,401] {logging_mixin.py:112} INFO - [2020-10-17 12:02:32,401] {dagbag.py:417} INFO - Filling up the DagBag from /home/suraj/airflow/dags/dag1.py
[2020-10-17 12:02:32,404] {scheduler_job.py:1603} WARNING - No viable dags retrieved from /home/suraj/airflow/dags/dag1.py
[2020-10-17 12:02:32,415] {scheduler_job.py:162} INFO - Processing /home/suraj/airflow/dags/dag1.py took 0.022 seconds
[2020-10-17 12:03:26,405] {scheduler_job.py:154} INFO - Started process (PID=5372) to work on /home/suraj/airflow/dags/dag1.py
[2020-10-17 12:03:26,409] {scheduler_job.py:1589} INFO - Processing file /home/suraj/airflow/dags/dag1.py for tasks to queue
[2020-10-17 12:03:26,410] {logging_mixin.py:112} INFO - [2020-10-17 12:03:26,410] {dagbag.py:417} INFO - Filling up the DagBag from /home/suraj/airflow/dags/dag1.py
[2020-10-17 12:03:26,412] {scheduler_job.py:1603} WARNING - No viable dags retrieved from /home/suraj/airflow/dags/dag1.py
[2020-10-17 12:03:26,427] {scheduler_job.py:162} INFO - Processing /home/suraj/airflow/dags/dag1.py took 0.022 seconds
[2020-10-17 12:04:20,440] {scheduler_job.py:154} INFO - Started process (PID=5415) to work on /home/suraj/airflow/dags/dag1.py
[2020-10-17 12:04:20,447] {scheduler_job.py:1589} INFO - Processing file /home/suraj/airflow/dags/dag1.py for tasks to queue
[2020-10-17 12:04:20,447] {logging_mixin.py:112} INFO - [2020-10-17 12:04:20,447] {dagbag.py:417} INFO - Filling up the DagBag from /home/suraj/airflow/dags/dag1.py
[2020-10-17 12:04:20,450] {scheduler_job.py:1603} WARNING - No viable dags retrieved from /home/suraj/airflow/dags/dag1.py
[2020-10-17 12:04:20,465] {scheduler_job.py:162} INFO - Processing /home/suraj/airflow/dags/dag1.py took 0.026 seconds
[2020-10-17 12:05:14,474] {scheduler_job.py:154} INFO - Started process (PID=5458) to work on /home/suraj/airflow/dags/dag1.py
[2020-10-17 12:05:14,482] {scheduler_job.py:1589} INFO - Processing file /home/suraj/airflow/dags/dag1.py for tasks to queue
[2020-10-17 12:05:14,482] {logging_mixin.py:112} INFO - [2020-10-17 12:05:14,482] {dagbag.py:417} INFO - Filling up the DagBag from /home/suraj/airflow/dags/dag1.py
[2020-10-17 12:05:14,486] {scheduler_job.py:1603} WARNING - No viable dags retrieved from /home/suraj/airflow/dags/dag1.py
[2020-10-17 12:05:14,496] {scheduler_job.py:162} INFO - Processing /home/suraj/airflow/dags/dag1.py took 0.023 seconds
